{
  "href": "https://api.spotify.com/v1/me/tracks?offset=0&limit=3",
  "items": [
    {
      "added_at": "2025-06-14T13:45:57Z",
      "track": {
        "album": {
          "album_type": "album",
          "artists": [
            {
              "external_urls": {
                "spotify": "https://open.spotify.com/artist/1HwM5zlC5qNWhJtM00yXzG"
              },
              "href": "https://api.spotify.com/v1/artists/1HwM5zlC5qNWhJtM00yXzG",
              "id": "1HwM5zlC5qNWhJtM00yXzG",
              "name": "DMX",
              "type": "artist",
              "uri": "spotify:artist:1HwM5zlC5qNWhJtM00yXzG"
            }
          ],
          "available_markets": [
            "AR",
            "AU",
            "AT",
            "BE",
            "BO",
            "BR",
            "BG",
            "CA",
            "CL",
            "CO",
            "CR",
            "CY",
            "CZ",
            "DK",
            "DO",
            "DE",
            "EC",
            "EE",
            "SV",
            "FI",
            "FR",
            "GR",
            "GT",
            "HN",
            "HK",
            "HU",
            "IS",
            "IE",
            "IT",
            "LV",
            "LT",
            "LU",
            "MY",
            "MT",
            "MX",
            "NL",
            "NZ",
            "NI",
            "NO",
            "PA",
            "PY",
            "PE",
            "PH",
            "PL",
            "PT",
            "SG",
            "SK",
            "ES",
            "SE",
            "CH",
            "TW",
            "TR",
            "UY",
            "US",
            "GB",
            "AD",
            "LI",
            "MC",
            "ID",
            "JP",
            "TH",
            "VN",
            "RO",
            "IL",
            "ZA",
            "SA",
            "AE",
            "BH",
            "QA",
            "OM",
            "KW",
            "EG",
            "MA",
            "DZ",
            "TN",
            "LB",
            "JO",
            "PS",
            "IN",
            "BY",
            "KZ",
            "MD",
            "UA",
            "AL",
            "BA",
            "HR",
            "ME",
            "MK",
            "RS",
            "SI",
            "KR",
            "BD",
            "PK",
            "LK",
            "GH",
            "KE",
            "NG",
            "TZ",
            "UG",
            "AG",
            "AM",
            "BS",
            "BB",
            "BZ",
            "BT",
            "BW",
            "BF",
            "CV",
            "CW",
            "DM",
            "FJ",
            "GM",
            "GE",
            "GD",
            "GW",
            "GY",
            "HT",
            "JM",
            "KI",
            "LS",
            "LR",
            "MW",
            "MV",
            "ML",
            "MH",
            "FM",
            "NA",
            "NR",
            "NE",
            "PW",
            "PG",
            "WS",
            "SM",
            "ST",
            "SN",
            "SC",
            "SL",
            "SB",
            "KN",
            "LC",
            "VC",
            "SR",
            "TL",
            "TO",
            "TT",
            "TV",
            "VU",
            "AZ",
            "BN",
            "BI",
            "KH",
            "CM",
            "TD",
            "KM",
            "GQ",
            "SZ",
            "GA",
            "GN",
            "KG",
            "LA",
            "MO",
            "MR",
            "MN",
            "NP",
            "RW",
            "TG",
            "UZ",
            "ZW",
            "BJ",
            "MG",
            "MU",
            "MZ",
            "AO",
            "CI",
            "DJ",
            "ZM",
            "CD",
            "CG",
            "IQ",
            "LY",
            "TJ",
            "VE",
            "ET",
            "XK"
          ],
          "external_urls": {
            "spotify": "https://open.spotify.com/album/2xIhksIizs6gWdRBYdiTLc"
          },
          "href": "https://api.spotify.com/v1/albums/2xIhksIizs6gWdRBYdiTLc",
          "id": "2xIhksIizs6gWdRBYdiTLc",
          "images": [
            {
              "height": 640,
              "width": 640,
              "url": "https://i.scdn.co/image/ab67616d0000b27311658b970e0518be491871df"
            },
            {
              "height": 300,
              "width": 300,
              "url": "https://i.scdn.co/image/ab67616d00001e0211658b970e0518be491871df"
            },
            {
              "height": 64,
              "width": 64,
              "url": "https://i.scdn.co/image/ab67616d0000485111658b970e0518be491871df"
            }
          ],
          "is_playable": true,
          "name": "It's Dark And Hell Is Hot",
          "release_date": "1998-05-01",
          "release_date_precision": "day",
          "total_tracks": 19,
          "type": "album",
          "uri": "spotify:album:2xIhksIizs6gWdRBYdiTLc"
        },
        "artists": [
          {
            "external_urls": {
              "spotify": "https://open.spotify.com/artist/1HwM5zlC5qNWhJtM00yXzG"
            },
            "href": "https://api.spotify.com/v1/artists/1HwM5zlC5qNWhJtM00yXzG",
            "id": "1HwM5zlC5qNWhJtM00yXzG",
            "name": "DMX",
            "type": "artist",
            "uri": "spotify:artist:1HwM5zlC5qNWhJtM00yXzG"
          }
        ],
        "available_markets": [
          "AR",
          "AU",
          "AT",
          "BE",
          "BO",
          "BR",
          "BG",
          "CA",
          "CL",
          "CO",
          "CR",
          "CY",
          "CZ",
          "DK",
          "DO",
          "DE",
          "EC",
          "EE",
          "SV",
          "FI",
          "FR",
          "GR",
          "GT",
          "HN",
          "HK",
          "HU",
          "IS",
          "IE",
          "IT",
          "LV",
          "LT",
          "LU",
          "MY",
          "MT",
          "MX",
          "NL",
          "NZ",
          "NI",
          "NO",
          "PA",
          "PY",
          "PE",
          "PH",
          "PL",
          "PT",
          "SG",
          "SK",
          "ES",
          "SE",
          "CH",
          "TW",
          "TR",
          "UY",
          "US",
          "GB",
          "AD",
          "LI",
          "MC",
          "ID",
          "JP",
          "TH",
          "VN",
          "RO",
          "IL",
          "ZA",
          "SA",
          "AE",
          "BH",
          "QA",
          "OM",
          "KW",
          "EG",
          "MA",
          "DZ",
          "TN",
          "LB",
          "JO",
          "PS",
          "IN",
          "BY",
          "KZ",
          "MD",
          "UA",
          "AL",
          "BA",
          "HR",
          "ME",
          "MK",
          "RS",
          "SI",
          "KR",
          "BD",
          "PK",
          "LK",
          "GH",
          "KE",
          "NG",
          "TZ",
          "UG",
          "AG",
          "AM",
          "BS",
          "BB",
          "BZ",
          "BT",
          "BW",
          "BF",
          "CV",
          "CW",
          "DM",
          "FJ",
          "GM",
          "GE",
          "GD",
          "GW",
          "GY",
          "HT",
          "JM",
          "KI",
          "LS",
          "LR",
          "MW",
          "MV",
          "ML",
          "MH",
          "FM",
          "NA",
          "NR",
          "NE",
          "PW",
          "PG",
          "WS",
          "SM",
          "ST",
          "SN",
          "SC",
          "SL",
          "SB",
          "KN",
          "LC",
          "VC",
          "SR",
          "TL",
          "TO",
          "TT",
          "TV",
          "VU",
          "AZ",
          "BN",
          "BI",
          "KH",
          "CM",
          "TD",
          "KM",
          "GQ",
          "SZ",
          "GA",
          "GN",
          "KG",
          "LA",
          "MO",
          "MR",
          "MN",
          "NP",
          "RW",
          "TG",
          "UZ",
          "ZW",
          "BJ",
          "MG",
          "MU",
          "MZ",
          "AO",
          "CI",
          "DJ",
          "ZM",
          "CD",
          "CG",
          "IQ",
          "LY",
          "TJ",
          "VE",
          "ET",
          "XK"
        ],
        "disc_number": 1,
        "duration_ms": 214440,
        "explicit": true,
        "external_ids": {
          "isrc": "USRL19800734"
        },
        "external_urls": {
          "spotify": "https://open.spotify.com/track/1BKT2I9x4RGKaKqW4up34s"
        },
        "href": "https://api.spotify.com/v1/tracks/1BKT2I9x4RGKaKqW4up34s",
        "id": "1BKT2I9x4RGKaKqW4up34s",
        "is_local": false,
        "is_playable": true,
        "name": "Ruff Ryders' Anthem",
        "popularity": 74,
        "preview_url": null,
        "track_number": 2,
        "type": "track",
        "uri": "spotify:track:1BKT2I9x4RGKaKqW4up34s"
      }
    },
    {
      "added_at": "2025-06-11T05:24:16Z",
      "track": {
        "album": {
          "album_type": "album",
          "artists": [
            {
              "external_urls": {
                "spotify": "https://open.spotify.com/artist/31TPClRtHm23RisEBtV3X7"
              },
              "href": "https://api.spotify.com/v1/artists/31TPClRtHm23RisEBtV3X7",
              "id": "31TPClRtHm23RisEBtV3X7",
              "name": "Justin Timberlake",
              "type": "artist",
              "uri": "spotify:artist:31TPClRtHm23RisEBtV3X7"
            }
          ],
          "available_markets": [
            "AR",
            "AU",
            "AT",
            "BE",
            "BO",
            "BR",
            "BG",
            "CA",
            "CL",
            "CO",
            "CR",
            "CY",
            "CZ",
            "DK",
            "DO",
            "DE",
            "EC",
            "EE",
            "SV",
            "FI",
            "FR",
            "GR",
            "GT",
            "HN",
            "HK",
            "HU",
            "IS",
            "IE",
            "IT",
            "LV",
            "LT",
            "LU",
            "MY",
            "MT",
            "MX",
            "NL",
            "NZ",
            "NI",
            "NO",
            "PA",
            "PY",
            "PE",
            "PH",
            "PL",
            "PT",
            "SG",
            "SK",
            "ES",
            "SE",
            "CH",
            "TW",
            "TR",
            "UY",
            "US",
            "GB",
            "AD",
            "LI",
            "MC",
            "ID",
            "JP",
            "TH",
            "VN",
            "RO",
            "IL",
            "ZA",
            "SA",
            "AE",
            "BH",
            "QA",
            "OM",
            "KW",
            "EG",
            "MA",
            "DZ",
            "TN",
            "LB",
            "JO",
            "PS",
            "IN",
            "BY",
            "KZ",
            "MD",
            "UA",
            "AL",
            "BA",
            "HR",
            "ME",
            "MK",
            "RS",
            "SI",
            "KR",
            "BD",
            "PK",
            "LK",
            "GH",
            "KE",
            "NG",
            "TZ",
            "UG",
            "AG",
            "AM",
            "BS",
            "BB",
            "BZ",
            "BT",
            "BW",
            "BF",
            "CV",
            "CW",
            "DM",
            "FJ",
            "GM",
            "GE",
            "GD",
            "GW",
            "GY",
            "HT",
            "JM",
            "KI",
            "LS",
            "LR",
            "MW",
            "MV",
            "ML",
            "MH",
            "FM",
            "NA",
            "NR",
            "NE",
            "PW",
            "PG",
            "PR",
            "WS",
            "SM",
            "ST",
            "SN",
            "SC",
            "SL",
            "SB",
            "KN",
            "LC",
            "VC",
            "SR",
            "TL",
            "TO",
            "TT",
            "TV",
            "VU",
            "AZ",
            "BN",
            "BI",
            "KH",
            "CM",
            "TD",
            "KM",
            "GQ",
            "SZ",
            "GA",
            "GN",
            "KG",
            "LA",
            "MO",
            "MR",
            "MN",
            "NP",
            "RW",
            "TG",
            "UZ",
            "ZW",
            "BJ",
            "MG",
            "MU",
            "MZ",
            "AO",
            "CI",
            "DJ",
            "ZM",
            "CD",
            "CG",
            "IQ",
            "LY",
            "TJ",
            "VE",
            "ET",
            "XK"
          ],
          "external_urls": {
            "spotify": "https://open.spotify.com/album/2scB1uhcCI1TSf6b9TCZK3"
          },
          "href": "https://api.spotify.com/v1/albums/2scB1uhcCI1TSf6b9TCZK3",
          "id": "2scB1uhcCI1TSf6b9TCZK3",
          "images": [
            {
              "height": 640,
              "width": 640,
              "url": "https://i.scdn.co/image/ab67616d0000b273c6ba98fd3f3b396a6c6f7091"
            },
            {
              "height": 300,
              "width": 300,
              "url": "https://i.scdn.co/image/ab67616d00001e02c6ba98fd3f3b396a6c6f7091"
            },
            {
              "height": 64,
              "width": 64,
              "url": "https://i.scdn.co/image/ab67616d00004851c6ba98fd3f3b396a6c6f7091"
            }
          ],
          "is_playable": true,
          "name": "FutureSex/LoveSounds",
          "release_date": "2006-09-12",
          "release_date_precision": "day",
          "total_tracks": 12,
          "type": "album",
          "uri": "spotify:album:2scB1uhcCI1TSf6b9TCZK3"
        },
        "artists": [
          {
            "external_urls": {
              "spotify": "https://open.spotify.com/artist/31TPClRtHm23RisEBtV3X7"
            },
            "href": "https://api.spotify.com/v1/artists/31TPClRtHm23RisEBtV3X7",
            "id": "31TPClRtHm23RisEBtV3X7",
            "name": "Justin Timberlake",
            "type": "artist",
            "uri": "spotify:artist:31TPClRtHm23RisEBtV3X7"
          }
        ],
        "available_markets": [
          "AR",
          "AU",
          "AT",
          "BE",
          "BO",
          "BR",
          "BG",
          "CA",
          "CL",
          "CO",
          "CR",
          "CY",
          "CZ",
          "DK",
          "DO",
          "DE",
          "EC",
          "EE",
          "SV",
          "FI",
          "FR",
          "GR",
          "GT",
          "HN",
          "HK",
          "HU",
          "IS",
          "IE",
          "IT",
          "LV",
          "LT",
          "LU",
          "MY",
          "MT",
          "MX",
          "NL",
          "NZ",
          "NI",
          "NO",
          "PA",
          "PY",
          "PE",
          "PH",
          "PL",
          "PT",
          "SG",
          "SK",
          "ES",
          "SE",
          "CH",
          "TW",
          "TR",
          "UY",
          "US",
          "GB",
          "AD",
          "LI",
          "MC",
          "ID",
          "JP",
          "TH",
          "VN",
          "RO",
          "IL",
          "ZA",
          "SA",
          "AE",
          "BH",
          "QA",
          "OM",
          "KW",
          "EG",
          "MA",
          "DZ",
          "TN",
          "LB",
          "JO",
          "PS",
          "IN",
          "BY",
          "KZ",
          "MD",
          "UA",
          "AL",
          "BA",
          "HR",
          "ME",
          "MK",
          "RS",
          "SI",
          "KR",
          "BD",
          "PK",
          "LK",
          "GH",
          "KE",
          "NG",
          "TZ",
          "UG",
          "AG",
          "AM",
          "BS",
          "BB",
          "BZ",
          "BT",
          "BW",
          "BF",
          "CV",
          "CW",
          "DM",
          "FJ",
          "GM",
          "GE",
          "GD",
          "GW",
          "GY",
          "HT",
          "JM",
          "KI",
          "LS",
          "LR",
          "MW",
          "MV",
          "ML",
          "MH",
          "FM",
          "NA",
          "NR",
          "NE",
          "PW",
          "PG",
          "PR",
          "WS",
          "SM",
          "ST",
          "SN",
          "SC",
          "SL",
          "SB",
          "KN",
          "LC",
          "VC",
          "SR",
          "TL",
          "TO",
          "TT",
          "TV",
          "VU",
          "AZ",
          "BN",
          "BI",
          "KH",
          "CM",
          "TD",
          "KM",
          "GQ",
          "SZ",
          "GA",
          "GN",
          "KG",
          "LA",
          "MO",
          "MR",
          "MN",
          "NP",
          "RW",
          "TG",
          "UZ",
          "ZW",
          "BJ",
          "MG",
          "MU",
          "MZ",
          "AO",
          "CI",
          "DJ",
          "ZM",
          "CD",
          "CG",
          "IQ",
          "LY",
          "TJ",
          "VE",
          "ET",
          "XK"
        ],
        "disc_number": 1,
        "duration_ms": 448573,
        "explicit": false,
        "external_ids": {
          "isrc": "USJI10600479"
        },
        "external_urls": {
          "spotify": "https://open.spotify.com/track/3pD0f7hSJg2XdQ6udw5Tey"
        },
        "href": "https://api.spotify.com/v1/tracks/3pD0f7hSJg2XdQ6udw5Tey",
        "id": "3pD0f7hSJg2XdQ6udw5Tey",
        "is_local": false,
        "is_playable": true,
        "name": "What Goes Around.../...Comes Around (Interlude)",
        "popularity": 80,
        "preview_url": null,
        "track_number": 6,
        "type": "track",
        "uri": "spotify:track:3pD0f7hSJg2XdQ6udw5Tey"
      }
    },
    {
      "added_at": "2025-06-06T07:33:27Z",
      "track": {
        "album": {
          "album_type": "album",
          "artists": [
            {
              "external_urls": {
                "spotify": "https://open.spotify.com/artist/0Y5tJX1MQlPlqiwlOH1tJY"
              },
              "href": "https://api.spotify.com/v1/artists/0Y5tJX1MQlPlqiwlOH1tJY",
              "id": "0Y5tJX1MQlPlqiwlOH1tJY",
              "name": "Travis Scott",
              "type": "artist",
              "uri": "spotify:artist:0Y5tJX1MQlPlqiwlOH1tJY"
            }
          ],
          "available_markets": [
            "AR",
            "AU",
            "AT",
            "BE",
            "BO",
            "BR",
            "BG",
            "CA",
            "CL",
            "CO",
            "CR",
            "CY",
            "CZ",
            "DK",
            "DO",
            "DE",
            "EC",
            "EE",
            "SV",
            "FI",
            "FR",
            "GR",
            "GT",
            "HN",
            "HK",
            "HU",
            "IS",
            "IE",
            "IT",
            "LV",
            "LT",
            "LU",
            "MY",
            "MT",
            "MX",
            "NL",
            "NZ",
            "NI",
            "NO",
            "PA",
            "PY",
            "PE",
            "PH",
            "PL",
            "PT",
            "SG",
            "SK",
            "ES",
            "SE",
            "CH",
            "TW",
            "TR",
            "UY",
            "US",
            "GB",
            "AD",
            "LI",
            "MC",
            "ID",
            "JP",
            "TH",
            "VN",
            "RO",
            "IL",
            "ZA",
            "SA",
            "AE",
            "BH",
            "QA",
            "OM",
            "KW",
            "EG",
            "MA",
            "DZ",
            "TN",
            "LB",
            "JO",
            "PS",
            "IN",
            "BY",
            "KZ",
            "MD",
            "UA",
            "AL",
            "BA",
            "HR",
            "ME",
            "MK",
            "RS",
            "SI",
            "KR",
            "BD",
            "PK",
            "LK",
            "GH",
            "KE",
            "NG",
            "TZ",
            "UG",
            "AG",
            "AM",
            "BS",
            "BB",
            "BZ",
            "BT",
            "BW",
            "BF",
            "CV",
            "CW",
            "DM",
            "FJ",
            "GM",
            "GE",
            "GD",
            "GW",
            "GY",
            "HT",
            "JM",
            "KI",
            "LS",
            "LR",
            "MW",
            "MV",
            "ML",
            "MH",
            "FM",
            "NA",
            "NR",
            "NE",
            "PW",
            "PG",
            "PR",
            "WS",
            "SM",
            "ST",
            "SN",
            "SC",
            "SL",
            "SB",
            "KN",
            "LC",
            "VC",
            "SR",
            "TL",
            "TO",
            "TT",
            "TV",
            "VU",
            "AZ",
            "BN",
            "BI",
            "KH",
            "CM",
            "TD",
            "KM",
            "GQ",
            "SZ",
            "GA",
            "GN",
            "KG",
            "LA",
            "MO",
            "MR",
            "MN",
            "NP",
            "RW",
            "TG",
            "UZ",
            "ZW",
            "BJ",
            "MG",
            "MU",
            "MZ",
            "AO",
            "CI",
            "DJ",
            "ZM",
            "CD",
            "CG",
            "IQ",
            "LY",
            "TJ",
            "VE",
            "ET",
            "XK"
          ],
          "external_urls": {
            "spotify": "https://open.spotify.com/album/4PWBTB6NYSKQwfo79I3prg"
          },
          "href": "https://api.spotify.com/v1/albums/4PWBTB6NYSKQwfo79I3prg",
          "id": "4PWBTB6NYSKQwfo79I3prg",
          "images": [
            {
              "height": 640,
              "width": 640,
              "url": "https://i.scdn.co/image/ab67616d0000b2736cfd9a7353f98f5165ea6160"
            },
            {
              "height": 300,
              "width": 300,
              "url": "https://i.scdn.co/image/ab67616d00001e026cfd9a7353f98f5165ea6160"
            },
            {
              "height": 64,
              "width": 64,
              "url": "https://i.scdn.co/image/ab67616d000048516cfd9a7353f98f5165ea6160"
            }
          ],
          "is_playable": true,
          "name": "Rodeo",
          "release_date": "2015-09-04",
          "release_date_precision": "day",
          "total_tracks": 16,
          "type": "album",
          "uri": "spotify:album:4PWBTB6NYSKQwfo79I3prg"
        },
        "artists": [
          {
            "external_urls": {
              "spotify": "https://open.spotify.com/artist/0Y5tJX1MQlPlqiwlOH1tJY"
            },
            "href": "https://api.spotify.com/v1/artists/0Y5tJX1MQlPlqiwlOH1tJY",
            "id": "0Y5tJX1MQlPlqiwlOH1tJY",
            "name": "Travis Scott",
            "type": "artist",
            "uri": "spotify:artist:0Y5tJX1MQlPlqiwlOH1tJY"
          },
          {
            "external_urls": {
              "spotify": "https://open.spotify.com/artist/1zNqQNIdeOUZHb8zbZRFMX"
            },
            "href": "https://api.spotify.com/v1/artists/1zNqQNIdeOUZHb8zbZRFMX",
            "id": "1zNqQNIdeOUZHb8zbZRFMX",
            "name": "Swae Lee",
            "type": "artist",
            "uri": "spotify:artist:1zNqQNIdeOUZHb8zbZRFMX"
          },
          {
            "external_urls": {
              "spotify": "https://open.spotify.com/artist/15iVAtD3s3FsQR4w1v6M0P"
            },
            "href": "https://api.spotify.com/v1/artists/15iVAtD3s3FsQR4w1v6M0P",
            "id": "15iVAtD3s3FsQR4w1v6M0P",
            "name": "Chief Keef",
            "type": "artist",
            "uri": "spotify:artist:15iVAtD3s3FsQR4w1v6M0P"
          }
        ],
        "available_markets": [
          "AR",
          "AU",
          "AT",
          "BE",
          "BO",
          "BR",
          "BG",
          "CA",
          "CL",
          "CO",
          "CR",
          "CY",
          "CZ",
          "DK",
          "DO",
          "DE",
          "EC",
          "EE",
          "SV",
          "FI",
          "FR",
          "GR",
          "GT",
          "HN",
          "HK",
          "HU",
          "IS",
          "IE",
          "IT",
          "LV",
          "LT",
          "LU",
          "MY",
          "MT",
          "MX",
          "NL",
          "NZ",
          "NI",
          "NO",
          "PA",
          "PY",
          "PE",
          "PH",
          "PL",
          "PT",
          "SG",
          "SK",
          "ES",
          "SE",
          "CH",
          "TW",
          "TR",
          "UY",
          "US",
          "GB",
          "AD",
          "LI",
          "MC",
          "ID",
          "JP",
          "TH",
          "VN",
          "RO",
          "IL",
          "ZA",
          "SA",
          "AE",
          "BH",
          "QA",
          "OM",
          "KW",
          "EG",
          "MA",
          "DZ",
          "TN",
          "LB",
          "JO",
          "PS",
          "IN",
          "BY",
          "KZ",
          "MD",
          "UA",
          "AL",
          "BA",
          "HR",
          "ME",
          "MK",
          "RS",
          "SI",
          "KR",
          "BD",
          "PK",
          "LK",
          "GH",
          "KE",
          "NG",
          "TZ",
          "UG",
          "AG",
          "AM",
          "BS",
          "BB",
          "BZ",
          "BT",
          "BW",
          "BF",
          "CV",
          "CW",
          "DM",
          "FJ",
          "GM",
          "GE",
          "GD",
          "GW",
          "GY",
          "HT",
          "JM",
          "KI",
          "LS",
          "LR",
          "MW",
          "MV",
          "ML",
          "MH",
          "FM",
          "NA",
          "NR",
          "NE",
          "PW",
          "PG",
          "PR",
          "WS",
          "SM",
          "ST",
          "SN",
          "SC",
          "SL",
          "SB",
          "KN",
          "LC",
          "VC",
          "SR",
          "TL",
          "TO",
          "TT",
          "TV",
          "VU",
          "AZ",
          "BN",
          "BI",
          "KH",
          "CM",
          "TD",
          "KM",
          "GQ",
          "SZ",
          "GA",
          "GN",
          "KG",
          "LA",
          "MO",
          "MR",
          "MN",
          "NP",
          "RW",
          "TG",
          "UZ",
          "ZW",
          "BJ",
          "MG",
          "MU",
          "MZ",
          "AO",
          "CI",
          "DJ",
          "ZM",
          "CD",
          "CG",
          "IQ",
          "LY",
          "TJ",
          "VE",
          "ET",
          "XK"
        ],
        "disc_number": 1,
        "duration_ms": 321560,
        "explicit": true,
        "external_ids": {
          "isrc": "USSM11506733"
        },
        "external_urls": {
          "spotify": "https://open.spotify.com/track/3xby7fOyqmeON8jsnom0AT"
        },
        "href": "https://api.spotify.com/v1/tracks/3xby7fOyqmeON8jsnom0AT",
        "id": "3xby7fOyqmeON8jsnom0AT",
        "is_local": false,
        "is_playable": true,
        "name": "Nightcrawler (feat. Swae Lee & Chief Keef)",
        "popularity": 81,
        "preview_url": null,
        "track_number": 7,
        "type": "track",
        "uri": "spotify:track:3xby7fOyqmeON8jsnom0AT"
      }
    }
  ],
  "limit": 3,
  "next": "https://api.spotify.com/v1/me/tracks?offset=3&limit=3",
  "offset": 0,
  "previous": null,
  "total": 239
}