{
  "items": [
    {
      "external_urls": {
        "spotify": "https://open.spotify.com/artist/4tZwfgrHOc3mvqYlEYSvVi"
      },
      "followers": {
        "href": null,
        "total": 10657264
      },
      "genres": [
        "french house",
        "electronic",
        "electro"
      ],
      "href": "https://api.spotify.com/v1/artists/4tZwfgrHOc3mvqYlEYSvVi",
      "id": "4tZwfgrHOc3mvqYlEYSvVi",
      "images": [
        {
          "height": 640,
          "url": "https://i.scdn.co/image/ab6761610000e5ebdc93bb227980211b325b9d70",
          "width": 640
        },
        {
          "height": 320,
          "url": "https://i.scdn.co/image/ab67616100005174dc93bb227980211b325b9d70",
          "width": 320
        },
        {
          "height": 160,
          "url": "https://i.scdn.co/image/ab6761610000f178dc93bb227980211b325b9d70",
          "width": 160
        }
      ],
      "name": "Daft Punk",
      "popularity": 83,
      "type": "artist",
      "uri": "spotify:artist:4tZwfgrHOc3mvqYlEYSvVi"
    },
    {
      "external_urls": {
        "spotify": "https://open.spotify.com/artist/165ZgPlLkK7bf5bDoFc6Sb"
      },
      "followers": {
        "href": null,
        "total": 7471088
      },
      "genres": [
        "nu metal",
        "rap metal",
        "alternative metal",
        "rap rock"
      ],
      "href": "https://api.spotify.com/v1/artists/165ZgPlLkK7bf5bDoFc6Sb",
      "id": "165ZgPlLkK7bf5bDoFc6Sb",
      "images": [
        {
          "height": 1006,
          "url": "https://i.scdn.co/image/4654955890cb62a6abe9daadfd2b3ecdee8036e4",
          "width": 1000
        },
        {
          "height": 644,
          "url": "https://i.scdn.co/image/c8e241c3b7ddb2839be99acf9a1ad2d73f04b936",
          "width": 640
        },
        {
          "height": 201,
          "url": "https://i.scdn.co/image/38532b2db9bc627567271da917855a59be788860",
          "width": 200
        },
        {
          "height": 64,
          "url": "https://i.scdn.co/image/67ab66b1154c3115005086d60853fc954717a2ea",
          "width": 64
        }
      ],
      "name": "Limp Bizkit",
      "popularity": 80,
      "type": "artist",
      "uri": "spotify:artist:165ZgPlLkK7bf5bDoFc6Sb"
    },
    {
      "external_urls": {
        "spotify": "https://open.spotify.com/artist/6XyY86QOPPrYVGvF9ch6wz"
      },
      "followers": {
        "href": null,
        "total": 30373947
      },
      "genres": [
        "nu metal",
        "rap metal",
        "rock",
        "alternative metal"
      ],
      "href": "https://api.spotify.com/v1/artists/6XyY86QOPPrYVGvF9ch6wz",
      "id": "6XyY86QOPPrYVGvF9ch6wz",
      "images": [
        {
          "height": 640,
          "url": "https://i.scdn.co/image/ab6761610000e5eba49c7eec5131a21a0bfb737b",
          "width": 640
        },
        {
          "height": 320,
          "url": "https://i.scdn.co/image/ab67616100005174a49c7eec5131a21a0bfb737b",
          "width": 320
        },
        {
          "height": 160,
          "url": "https://i.scdn.co/image/ab6761610000f178a49c7eec5131a21a0bfb737b",
          "width": 160
        }
      ],
      "name": "Linkin Park",
      "popularity": 91,
      "type": "artist",
      "uri": "spotify:artist:6XyY86QOPPrYVGvF9ch6wz"
    },
    {
      "external_urls": {
        "spotify": "https://open.spotify.com/artist/3YQKmKGau1PzlVlkL1iodx"
      },
      "followers": {
        "href": null,
        "total": 25476443
      },
      "genres": [],
      "href": "https://api.spotify.com/v1/artists/3YQKmKGau1PzlVlkL1iodx",
      "id": "3YQKmKGau1PzlVlkL1iodx",
      "images": [
        {
          "height": 640,
          "url": "https://i.scdn.co/image/ab6761610000e5eb61a7ea26d33ded218cd1e59d",
          "width": 640
        },
        {
          "height": 320,
          "url": "https://i.scdn.co/image/ab6761610000517461a7ea26d33ded218cd1e59d",
          "width": 320
        },
        {
          "height": 160,
          "url": "https://i.scdn.co/image/ab6761610000f17861a7ea26d33ded218cd1e59d",
          "width": 160
        }
      ],
      "name": "Twenty One Pilots",
      "popularity": 86,
      "type": "artist",
      "uri": "spotify:artist:3YQKmKGau1PzlVlkL1iodx"
    },
    {
      "external_urls": {
        "spotify": "https://open.spotify.com/artist/5eAWCfyUhZtHHtBdNk56l1"
      },
      "followers": {
        "href": null,
        "total": 13125773
      },
      "genres": [
        "nu metal",
        "metal",
        "alternative metal",
        "rap metal",
        "rock"
      ],
      "href": "https://api.spotify.com/v1/artists/5eAWCfyUhZtHHtBdNk56l1",
      "id": "5eAWCfyUhZtHHtBdNk56l1",
      "images": [
        {
          "height": 640,
          "url": "https://i.scdn.co/image/ab6761610000e5eb60063d3451ade8f9fab397c2",
          "width": 640
        },
        {
          "height": 320,
          "url": "https://i.scdn.co/image/ab6761610000517460063d3451ade8f9fab397c2",
          "width": 320
        },
        {
          "height": 160,
          "url": "https://i.scdn.co/image/ab6761610000f17860063d3451ade8f9fab397c2",
          "width": 160
        }
      ],
      "name": "System Of A Down",
      "popularity": 84,
      "type": "artist",
      "uri": "spotify:artist:5eAWCfyUhZtHHtBdNk56l1"
    },
    {
      "external_urls": {
        "spotify": "https://open.spotify.com/artist/3fMbdgg4jU18AjLCKBhRSm"
      },
      "followers": {
        "href": null,
        "total": 35976281
      },
      "genres": [],
      "href": "https://api.spotify.com/v1/artists/3fMbdgg4jU18AjLCKBhRSm",
      "id": "3fMbdgg4jU18AjLCKBhRSm",
      "images": [
        {
          "height": 640,
          "url": "https://i.scdn.co/image/ab6761610000e5eb997cc9a4aec335d46c9481fd",
          "width": 640
        },
        {
          "height": 320,
          "url": "https://i.scdn.co/image/ab67616100005174997cc9a4aec335d46c9481fd",
          "width": 320
        },
        {
          "height": 160,
          "url": "https://i.scdn.co/image/ab6761610000f178997cc9a4aec335d46c9481fd",
          "width": 160
        }
      ],
      "name": "Michael Jackson",
      "popularity": 85,
      "type": "artist",
      "uri": "spotify:artist:3fMbdgg4jU18AjLCKBhRSm"
    },
    {
      "external_urls": {
        "spotify": "https://open.spotify.com/artist/7dGJo4pcD2V6oG8kP0tJRR"
      },
      "followers": {
        "href": null,
        "total": 101532323
      },
      "genres": [
        "rap",
        "hip hop"
      ],
      "href": "https://api.spotify.com/v1/artists/7dGJo4pcD2V6oG8kP0tJRR",
      "id": "7dGJo4pcD2V6oG8kP0tJRR",
      "images": [
        {
          "height": 640,
          "url": "https://i.scdn.co/image/ab6761610000e5eba00b11c129b27a88fc72f36b",
          "width": 640
        },
        {
          "height": 320,
          "url": "https://i.scdn.co/image/ab67616100005174a00b11c129b27a88fc72f36b",
          "width": 320
        },
        {
          "height": 160,
          "url": "https://i.scdn.co/image/ab6761610000f178a00b11c129b27a88fc72f36b",
          "width": 160
        }
      ],
      "name": "Eminem",
      "popularity": 92,
      "type": "artist",
      "uri": "spotify:artist:7dGJo4pcD2V6oG8kP0tJRR"
    },
    {
      "external_urls": {
        "spotify": "https://open.spotify.com/artist/1Xyo4u8uXC1ZmMpatF05PJ"
      },
      "followers": {
        "href": null,
        "total": 106686495
      },
      "genres": [],
      "href": "https://api.spotify.com/v1/artists/1Xyo4u8uXC1ZmMpatF05PJ",
      "id": "1Xyo4u8uXC1ZmMpatF05PJ",
      "images": [
        {
          "height": 640,
          "url": "https://i.scdn.co/image/ab6761610000e5eb9e528993a2820267b97f6aae",
          "width": 640
        },
        {
          "height": 320,
          "url": "https://i.scdn.co/image/ab676161000051749e528993a2820267b97f6aae",
          "width": 320
        },
        {
          "height": 160,
          "url": "https://i.scdn.co/image/ab6761610000f1789e528993a2820267b97f6aae",
          "width": 160
        }
      ],
      "name": "The Weeknd",
      "popularity": 97,
      "type": "artist",
      "uri": "spotify:artist:1Xyo4u8uXC1ZmMpatF05PJ"
    },
    {
      "external_urls": {
        "spotify": "https://open.spotify.com/artist/1ZwdS5xdxEREPySFridCfh"
      },
      "followers": {
        "href": null,
        "total": 21697494
      },
      "genres": [
        "old school hip hop",
        "gangster rap",
        "west coast hip hop",
        "g-funk",
        "hip hop"
      ],
      "href": "https://api.spotify.com/v1/artists/1ZwdS5xdxEREPySFridCfh",
      "id": "1ZwdS5xdxEREPySFridCfh",
      "images": [
        {
          "height": 640,
          "url": "https://i.scdn.co/image/ab6761610000e5eb7f5cc432c9c109248ebec1ac",
          "width": 640
        },
        {
          "height": 320,
          "url": "https://i.scdn.co/image/ab676161000051747f5cc432c9c109248ebec1ac",
          "width": 320
        },
        {
          "height": 160,
          "url": "https://i.scdn.co/image/ab6761610000f1787f5cc432c9c109248ebec1ac",
          "width": 160
        }
      ],
      "name": "2Pac",
      "popularity": 82,
      "type": "artist",
      "uri": "spotify:artist:1ZwdS5xdxEREPySFridCfh"
    },
    {
      "external_urls": {
        "spotify": "https://open.spotify.com/artist/5nGIFgo0shDenQYSE0Sn7c"
      },
      "followers": {
        "href": null,
        "total": 5651192
      },
      "genres": [
        "alternative metal"
      ],
      "href": "https://api.spotify.com/v1/artists/5nGIFgo0shDenQYSE0Sn7c",
      "id": "5nGIFgo0shDenQYSE0Sn7c",
      "images": [
        {
          "height": 640,
          "url": "https://i.scdn.co/image/ab6761610000e5eb7ecf213c7dd78e0049379c5b",
          "width": 640
        },
        {
          "height": 320,
          "url": "https://i.scdn.co/image/ab676161000051747ecf213c7dd78e0049379c5b",
          "width": 320
        },
        {
          "height": 160,
          "url": "https://i.scdn.co/image/ab6761610000f1787ecf213c7dd78e0049379c5b",
          "width": 160
        }
      ],
      "name": "Evanescence",
      "popularity": 78,
      "type": "artist",
      "uri": "spotify:artist:5nGIFgo0shDenQYSE0Sn7c"
    },
    {
      "external_urls": {
        "spotify": "https://open.spotify.com/artist/0du5cEVh5yTK9QJze8zA0C"
      },
      "followers": {
        "href": null,
        "total": 72654881
      },
      "genres": [],
      "href": "https://api.spotify.com/v1/artists/0du5cEVh5yTK9QJze8zA0C",
      "id": "0du5cEVh5yTK9QJze8zA0C",
      "images": [
        {
          "height": 640,
          "url": "https://i.scdn.co/image/ab6761610000e5ebc36dd9eb55fb0db4911f25dd",
          "width": 640
        },
        {
          "height": 320,
          "url": "https://i.scdn.co/image/ab67616100005174c36dd9eb55fb0db4911f25dd",
          "width": 320
        },
        {
          "height": 160,
          "url": "https://i.scdn.co/image/ab6761610000f178c36dd9eb55fb0db4911f25dd",
          "width": 160
        }
      ],
      "name": "Bruno Mars",
      "popularity": 93,
      "type": "artist",
      "uri": "spotify:artist:0du5cEVh5yTK9QJze8zA0C"
    },
    {
      "external_urls": {
        "spotify": "https://open.spotify.com/artist/30pF2pv50VXX6TgiMmKKjc"
      },
      "followers": {
        "href": null,
        "total": 31996
      },
      "genres": [
        "lo-fi"
      ],
      "href": "https://api.spotify.com/v1/artists/30pF2pv50VXX6TgiMmKKjc",
      "id": "30pF2pv50VXX6TgiMmKKjc",
      "images": [
        {
          "height": 640,
          "url": "https://i.scdn.co/image/ab6761610000e5eb39ce43b52504e06bdcf13cd1",
          "width": 640
        },
        {
          "height": 320,
          "url": "https://i.scdn.co/image/ab6761610000517439ce43b52504e06bdcf13cd1",
          "width": 320
        },
        {
          "height": 160,
          "url": "https://i.scdn.co/image/ab6761610000f17839ce43b52504e06bdcf13cd1",
          "width": 160
        }
      ],
      "name": "lonelyboy",
      "popularity": 47,
      "type": "artist",
      "uri": "spotify:artist:30pF2pv50VXX6TgiMmKKjc"
    },
    {
      "external_urls": {
        "spotify": "https://open.spotify.com/artist/6olE6TJLqED3rqDCT0FyPh"
      },
      "followers": {
        "href": null,
        "total": 22418993
      },
      "genres": [
        "grunge",
        "rock"
      ],
      "href": "https://api.spotify.com/v1/artists/6olE6TJLqED3rqDCT0FyPh",
      "id": "6olE6TJLqED3rqDCT0FyPh",
      "images": [
        {
          "height": 1057,
          "url": "https://i.scdn.co/image/84282c28d851a700132356381fcfbadc67ff498b",
          "width": 1000
        },
        {
          "height": 677,
          "url": "https://i.scdn.co/image/a4e10b79a642e9891383448cbf37d7266a6883d6",
          "width": 640
        },
        {
          "height": 211,
          "url": "https://i.scdn.co/image/42ae0f180f16e2f21c1f2212717fc436f5b95451",
          "width": 200
        },
        {
          "height": 68,
          "url": "https://i.scdn.co/image/e797ad36d56c3fc8fa06c6fe91263a15bf8391b8",
          "width": 64
        }
      ],
      "name": "Nirvana",
      "popularity": 84,
      "type": "artist",
      "uri": "spotify:artist:6olE6TJLqED3rqDCT0FyPh"
    },
    {
      "external_urls": {
        "spotify": "https://open.spotify.com/artist/1Cs0zKBU1kc0i8ypK3B9ai"
      },
      "followers": {
        "href": null,
        "total": 27097287
      },
      "genres": [
        "edm",
        "dance"
      ],
      "href": "https://api.spotify.com/v1/artists/1Cs0zKBU1kc0i8ypK3B9ai",
      "id": "1Cs0zKBU1kc0i8ypK3B9ai",
      "images": [
        {
          "height": 640,
          "url": "https://i.scdn.co/image/ab6761610000e5ebf150017ca69c8793503c2d4f",
          "width": 640
        },
        {
          "height": 320,
          "url": "https://i.scdn.co/image/ab67616100005174f150017ca69c8793503c2d4f",
          "width": 320
        },
        {
          "height": 160,
          "url": "https://i.scdn.co/image/ab6761610000f178f150017ca69c8793503c2d4f",
          "width": 160
        }
      ],
      "name": "David Guetta",
      "popularity": 90,
      "type": "artist",
      "uri": "spotify:artist:1Cs0zKBU1kc0i8ypK3B9ai"
    },
    {
      "external_urls": {
        "spotify": "https://open.spotify.com/artist/7CajNmpbOovFoOoasH2HaY"
      },
      "followers": {
        "href": null,
        "total": 23157159
      },
      "genres": [
        "edm"
      ],
      "href": "https://api.spotify.com/v1/artists/7CajNmpbOovFoOoasH2HaY",
      "id": "7CajNmpbOovFoOoasH2HaY",
      "images": [
        {
          "height": 640,
          "url": "https://i.scdn.co/image/ab6761610000e5eb1e4bcd2bef1896648762dd6b",
          "width": 640
        },
        {
          "height": 320,
          "url": "https://i.scdn.co/image/ab676161000051741e4bcd2bef1896648762dd6b",
          "width": 320
        },
        {
          "height": 160,
          "url": "https://i.scdn.co/image/ab6761610000f1781e4bcd2bef1896648762dd6b",
          "width": 160
        }
      ],
      "name": "Calvin Harris",
      "popularity": 89,
      "type": "artist",
      "uri": "spotify:artist:7CajNmpbOovFoOoasH2HaY"
    },
    {
      "external_urls": {
        "spotify": "https://open.spotify.com/artist/2CIMQHirSU0MQqyYHq0eOx"
      },
      "followers": {
        "href": null,
        "total": 2852608
      },
      "genres": [
        "edm",
        "progressive house",
        "dubstep"
      ],
      "href": "https://api.spotify.com/v1/artists/2CIMQHirSU0MQqyYHq0eOx",
      "id": "2CIMQHirSU0MQqyYHq0eOx",
      "images": [
        {
          "height": 640,
          "url": "https://i.scdn.co/image/ab6761610000e5eb89ffabe57a25cedeca3309e7",
          "width": 640
        },
        {
          "height": 320,
          "url": "https://i.scdn.co/image/ab6761610000517489ffabe57a25cedeca3309e7",
          "width": 320
        },
        {
          "height": 160,
          "url": "https://i.scdn.co/image/ab6761610000f17889ffabe57a25cedeca3309e7",
          "width": 160
        }
      ],
      "name": "deadmau5",
      "popularity": 68,
      "type": "artist",
      "uri": "spotify:artist:2CIMQHirSU0MQqyYHq0eOx"
    },
    {
      "external_urls": {
        "spotify": "https://open.spotify.com/artist/4r63FhuTkUYltbVAg5TQnk"
      },
      "followers": {
        "href": null,
        "total": 12710003
      },
      "genres": [],
      "href": "https://api.spotify.com/v1/artists/4r63FhuTkUYltbVAg5TQnk",
      "id": "4r63FhuTkUYltbVAg5TQnk",
      "images": [
        {
          "height": 640,
          "url": "https://i.scdn.co/image/ab6761610000e5ebbd6918901c1714560669f570",
          "width": 640
        },
        {
          "height": 320,
          "url": "https://i.scdn.co/image/ab67616100005174bd6918901c1714560669f570",
          "width": 320
        },
        {
          "height": 160,
          "url": "https://i.scdn.co/image/ab6761610000f178bd6918901c1714560669f570",
          "width": 160
        }
      ],
      "name": "DaBaby",
      "popularity": 80,
      "type": "artist",
      "uri": "spotify:artist:4r63FhuTkUYltbVAg5TQnk"
    },
    {
      "external_urls": {
        "spotify": "https://open.spotify.com/artist/67qogtRNI0GjUr8PlaG6Zh"
      },
      "followers": {
        "href": null,
        "total": 649327
      },
      "genres": [
        "dubstep",
        "edm"
      ],
      "href": "https://api.spotify.com/v1/artists/67qogtRNI0GjUr8PlaG6Zh",
      "id": "67qogtRNI0GjUr8PlaG6Zh",
      "images": [
        {
          "height": 640,
          "url": "https://i.scdn.co/image/ab6761610000e5ebdfbefb11a6ceee765d4cd98f",
          "width": 640
        },
        {
          "height": 320,
          "url": "https://i.scdn.co/image/ab67616100005174dfbefb11a6ceee765d4cd98f",
          "width": 320
        },
        {
          "height": 160,
          "url": "https://i.scdn.co/image/ab6761610000f178dfbefb11a6ceee765d4cd98f",
          "width": 160
        }
      ],
      "name": "Zeds Dead",
      "popularity": 63,
      "type": "artist",
      "uri": "spotify:artist:67qogtRNI0GjUr8PlaG6Zh"
    },
    {
      "external_urls": {
        "spotify": "https://open.spotify.com/artist/6deZN1bslXzeGvOLaLMOIF"
      },
      "followers": {
        "href": null,
        "total": 7620083
      },
      "genres": [
        "post-grunge",
        "rock"
      ],
      "href": "https://api.spotify.com/v1/artists/6deZN1bslXzeGvOLaLMOIF",
      "id": "6deZN1bslXzeGvOLaLMOIF",
      "images": [
        {
          "height": 640,
          "url": "https://i.scdn.co/image/ab6761610000e5eb4ad382f899596d8c7b9e8e09",
          "width": 640
        },
        {
          "height": 320,
          "url": "https://i.scdn.co/image/ab676161000051744ad382f899596d8c7b9e8e09",
          "width": 320
        },
        {
          "height": 160,
          "url": "https://i.scdn.co/image/ab6761610000f1784ad382f899596d8c7b9e8e09",
          "width": 160
        }
      ],
      "name": "Nickelback",
      "popularity": 81,
      "type": "artist",
      "uri": "spotify:artist:6deZN1bslXzeGvOLaLMOIF"
    },
    {
      "external_urls": {
        "spotify": "https://open.spotify.com/artist/0L8ExT028jH3ddEcZwqJJ5"
      },
      "followers": {
        "href": null,
        "total": 22644811
      },
      "genres": [
        "funk rock",
        "alternative rock",
        "rock"
      ],
      "href": "https://api.spotify.com/v1/artists/0L8ExT028jH3ddEcZwqJJ5",
      "id": "0L8ExT028jH3ddEcZwqJJ5",
      "images": [
        {
          "height": 640,
          "url": "https://i.scdn.co/image/ab6761610000e5ebc33cc15260b767ddec982ce8",
          "width": 640
        },
        {
          "height": 320,
          "url": "https://i.scdn.co/image/ab67616100005174c33cc15260b767ddec982ce8",
          "width": 320
        },
        {
          "height": 160,
          "url": "https://i.scdn.co/image/ab6761610000f178c33cc15260b767ddec982ce8",
          "width": 160
        }
      ],
      "name": "Red Hot Chili Peppers",
      "popularity": 86,
      "type": "artist",
      "uri": "spotify:artist:0L8ExT028jH3ddEcZwqJJ5"
    }
  ],
  "total": 331,
  "limit": 20,
  "offset": 0,
  "href": "https://api.spotify.com/v1/me/top/artists",
  "next": "https://api.spotify.com/v1/me/top/artists?offset=20&limit=20",
  "previous": null
}