{
  "categories": {
    "href": "https://api.spotify.com/v1/browse/categories?offset=0&limit=20",
    "items": [{
      "href": "https://api.spotify.com/v1/browse/categories/0JQ5DAt0tbjZptfcdMSKl3",
      "id": "0JQ5DAt0tbjZptfcdMSKl3",
      "icons": [{
        "height": 274,
        "url": "https://t.scdn.co/images/728ed47fc1674feb95f7ac20236eb6d7.jpeg",
        "width": 274
      }],
      "name": "Made For You"
    }, {
      "href": "https://api.spotify.com/v1/browse/categories/0JQ5DAqbMKFGaKcChsSgUO",
      "id": "0JQ5DAqbMKFGaKcChsSgUO",
      "icons": [{
        "height": 274,
        "url": "https://t.scdn.co/images/728ed47fc1674feb95f7ac20236eb6d7.jpeg",
        "width": 274
      }],
      "name": "New Releases"
    }, {
      "href": "https://api.spotify.com/v1/browse/categories/0JQ5DAqbMKFQ00XGBls6ym",
      "id": "0JQ5DAqbMKFQ00XGBls6ym",
      "icons": [{
        "height": 274,
        "url": "https://t.scdn.co/images/728ed47fc1674feb95f7ac20236eb6d7.jpeg",
        "width": 274
      }],
      "name": "Hip-Hop"
    }, {
      "href": "https://api.spotify.com/v1/browse/categories/0JQ5DAqbMKFKLfwjuJMoNC",
      "id": "0JQ5DAqbMKFKLfwjuJMoNC",
      "icons": [{
        "height": 274,
        "url": "https://t.scdn.co/images/a2e0ebe2ebed4566ba1d8236b869241f.jpeg",
        "width": 274
      }],
      "name": "Country"
    }, {
      "href": "https://api.spotify.com/v1/browse/categories/0JQ5DAqbMKFEC4WFtoNRpw",
      "id": "0JQ5DAqbMKFEC4WFtoNRpw",
      "icons": [{
        "height": 274,
        "url": "https://t.scdn.co/media/derived/pop-274x274_447148649685019f5e2a03a39e78ba52_0_0_274_274.jpg",
        "width": 274
      }],
      "name": "Pop"
    }, {
      "href": "https://api.spotify.com/v1/browse/categories/0JQ5DAqbMKFxXaXKP7zcDp",
      "id": "0JQ5DAqbMKFxXaXKP7zcDp",
      "icons": [{
        "height": 274,
        "url": "https://t.scdn.co/media/derived/latin-274x274_befbbd1fbb8e045491576e317cb16cdf_0_0_274_274.jpg",
        "width": 274
      }],
      "name": "Latin"
    }, {
      "href": "https://api.spotify.com/v1/browse/categories/0JQ5DAudkNjCgYMM0TZXDw",
      "id": "0JQ5DAudkNjCgYMM0TZXDw",
      "icons": [{
        "height": 274,
        "url": "https://charts-images.scdn.co/spotify-charts-logos/music_charts_search_arrow_274x274.jpeg",
        "width": 274
      }],
      "name": "Charts"
    }, {
      "href": "https://api.spotify.com/v1/browse/categories/0JQ5DAqbMKFDXXwE9BDJAr",
      "id": "0JQ5DAqbMKFDXXwE9BDJAr",
      "icons": [{
        "height": 274,
        "url": "https://t.scdn.co/media/derived/rock_9ce79e0a4ef901bbd10494f5b855d3cc_0_0_274_274.jpg",
        "width": 274
      }],
      "name": "Rock"
    }, {
      "href": "https://api.spotify.com/v1/browse/categories/0JQ5DAqbMKFEZPnFQSFB1T",
      "id": "0JQ5DAqbMKFEZPnFQSFB1T",
      "icons": [{
        "height": 274,
        "url": "https://t.scdn.co/media/derived/r-b-274x274_fd56efa72f4f63764b011b68121581d8_0_0_274_274.jpg",
        "width": 274
      }],
      "name": "R&B"
    }, {
      "href": "https://api.spotify.com/v1/browse/categories/0JQ5DAqbMKFHOzuVTgTizF",
      "id": "0JQ5DAqbMKFHOzuVTgTizF",
      "icons": [{
        "height": 274,
        "url": "https://t.scdn.co/media/derived/edm-274x274_0ef612604200a9c14995432994455a6d_0_0_274_274.jpg",
        "width": 274
      }],
      "name": "Dance/Electronic"
    }, {
      "href": "https://api.spotify.com/v1/browse/categories/0JQ5DAqbMKFJhFzxyONOIo",
      "id": "0JQ5DAqbMKFJhFzxyONOIo",
      "icons": [{
        "height": 274,
        "url": "https://t.scdn.co/images/728ed47fc1674feb95f7ac20236eb6d7.jpeg",
        "width": 274
      }],
      "name": "Black Music Month 2025"
    }, {
      "href": "https://api.spotify.com/v1/browse/categories/0JQ5DAqbMKFJSKUXqTGeJW",
      "id": "0JQ5DAqbMKFJSKUXqTGeJW",
      "icons": [{
        "height": 274,
        "url": "https://t.scdn.co/images/728ed47fc1674feb95f7ac20236eb6d7.jpeg",
        "width": 274
      }],
      "name": "Spring"
    }, {
      "href": "https://api.spotify.com/v1/browse/categories/0JQ5DAqbMKFAXlCG6QvYQ4",
      "id": "0JQ5DAqbMKFAXlCG6QvYQ4",
      "icons": [{
        "height": 274,
        "url": "https://t.scdn.co/media/links/workout-274x274.png",
        "width": 274
      }],
      "name": "Workout"
    }, {
      "href": "https://api.spotify.com/v1/browse/categories/0JQ5DAqbMKFzHmL4tf05da",
      "id": "0JQ5DAqbMKFzHmL4tf05da",
      "icons": [{
        "height": 274,
        "url": "https://t.scdn.co/media/original/mood-274x274_976986a31ac8c49794cbdc7246fd5ad7_274x274.jpg",
        "width": 274
      }],
      "name": "Mood"
    }, {
      "href": "https://api.spotify.com/v1/browse/categories/0JQ5DAqbMKFA6SOHvT3gck",
      "id": "0JQ5DAqbMKFA6SOHvT3gck",
      "icons": [{
        "height": 274,
        "url": "https://t.scdn.co/images/7ee6530d5b3c4acc9a0957046bf11d63",
        "width": 274
      }],
      "name": "Party"
    }, {
      "href": "https://api.spotify.com/v1/browse/categories/0JQ5DAqbMKFAUsdyVjCQuL",
      "id": "0JQ5DAqbMKFAUsdyVjCQuL",
      "icons": [{
        "height": 274,
        "url": "https://t.scdn.co/media/derived/romance-274x274_8100794c94847b6d27858bed6fa4d91b_0_0_274_274.jpg",
        "width": 274
      }],
      "name": "Love"
    }, {
      "href": "https://api.spotify.com/v1/browse/categories/0JQ5DAqbMKFIxnofjQmnmn",
      "id": "0JQ5DAqbMKFIxnofjQmnmn",
      "icons": [{
        "height": 274,
        "url": "https://t.scdn.co/images/27922fb7882e4d078c59b29cef4111b9",
        "width": 274
      }],
      "name": "Disney"
    }, {
      "href": "https://api.spotify.com/v1/browse/categories/0JQ5DAqbMKFEOEBCABAxo9",
      "id": "0JQ5DAqbMKFEOEBCABAxo9",
      "icons": [{
        "height": 274,
        "url": "https://t.scdn.co/images/1a416fb97f5647858c7f09c9cb6e7301",
        "width": 274
      }],
      "name": "Netflix"
    }, {
      "href": "https://api.spotify.com/v1/browse/categories/0JQ5DAqbMKFFzDl7qN9Apr",
      "id": "0JQ5DAqbMKFFzDl7qN9Apr",
      "icons": [{
        "height": 274,
        "url": "https://t.scdn.co/media/derived/chill-274x274_4c46374f007813dd10b37e8d8fd35b4b_0_0_274_274.jpg",
        "width": 274
      }],
      "name": "Chill"
    }, {
      "href": "https://api.spotify.com/v1/browse/categories/0JQ5DAqbMKFLVaM30PMBm4",
      "id": "0JQ5DAqbMKFLVaM30PMBm4",
      "icons": [{
        "height": 274,
        "url": "https://t.scdn.co/images/8e508d7eb5b843a89c368c9507ecc429.jpeg",
        "width": 274
      }],
      "name": "Summer"
    }],
    "limit": 20,
    "next": "https://api.spotify.com/v1/browse/categories?offset=20&limit=20",
    "offset": 0,
    "previous": null,
    "total": 64
  }
}